<?xml version="1.0" encoding="UTF-8"?>
<!DOCTYPE svg PUBLIC "-//W3C//DTD SVG 1.1//EN" "http://www.w3.org/Graphics/SVG/1.1/DTD/svg11.dtd">
<svg xmlns="http://www.w3.org/2000/svg" version="1.1" width="45px" height="45px" style="shape-rendering:geometricPrecision; text-rendering:geometricPrecision; image-rendering:optimizeQuality; fill-rule:evenodd; clip-rule:evenodd" xmlns:xlink="http://www.w3.org/1999/xlink">
<g><path style="opacity:0.716" fill="#ef6740" d="M 14.5,-0.5 C 19.5,-0.5 24.5,-0.5 29.5,-0.5C 36.1414,2.80806 41.1414,7.80806 44.5,14.5C 44.5,19.8333 44.5,25.1667 44.5,30.5C 42.7835,33.573 40.7835,36.573 38.5,39.5C 37.4091,40.8876 36.0758,41.3876 34.5,41C 37.2995,38.4429 38.2995,35.4429 37.5,32C 38.8614,29.2704 39.3614,26.4371 39,23.5C 38.0862,24.6537 37.2529,24.487 36.5,23C 35.6217,14.1749 30.6217,7.67491 21.5,3.5C 18.6041,3.7066 15.6041,3.87326 12.5,4C 10.6391,5.92322 8.30581,6.58988 5.5,6C 8.21403,3.32165 11.214,1.15499 14.5,-0.5 Z"/></g>
<g><path style="opacity:0.591" fill="#5972dd" d="M 8.5,14.5 C 5.65238,17.5523 3.65238,17.0523 2.5,13C 6.33562,5.41278 8.33562,5.91278 8.5,14.5 Z"/></g>
<g><path style="opacity:0.734" fill="#f0673f" d="M -0.5,28.5 C -0.5,25.1667 -0.5,21.8333 -0.5,18.5C 1.36804,17.2431 3.03471,17.5764 4.5,19.5C 6.96078,18.7086 8.29411,17.0419 8.5,14.5C 11.29,9.33011 14.79,8.66345 19,12.5C 20.69,17.4157 19.0234,20.4157 14,21.5C 7.85121,19.4436 4.35121,21.7769 3.5,28.5C 2.19165,29.6256 0.858316,29.6256 -0.5,28.5 Z"/></g>
<g><path style="opacity:0.689" fill="#5772de" d="M 17.5,44.5 C 15.1667,44.5 12.8333,44.5 10.5,44.5C 9.54227,43.0384 8.37561,41.7051 7,40.5C 6.33333,39.8333 6.33333,39.1667 7,38.5C 10.4106,37.7069 13.9106,37.2069 17.5,37C 18.7948,34.894 19.9615,32.394 21,29.5C 27.2652,26.4701 30.2652,28.4701 30,35.5C 29.1667,36.3333 28.3333,37.1667 27.5,38C 24.443,38.2565 21.443,38.7565 18.5,39.5C 17.5481,41.0453 17.2148,42.712 17.5,44.5 Z"/></g>
<g><path style="opacity:0.604" fill="#f0673e" d="M 28.5,44.5 C 25.8333,44.5 23.1667,44.5 20.5,44.5C 19.02,41.5438 20.02,39.8772 23.5,39.5C 26.8202,39.6382 28.4869,41.3049 28.5,44.5 Z"/></g>
</svg>
