<?xml version="1.0" standalone="no"?>
<!DOCTYPE svg PUBLIC "-//W3C//DTD SVG 1.0//EN" "http://www.w3.org/TR/2001/REC-SVG-20010904/DTD/svg10.dtd">
<svg xmlns="http://www.w3.org/2000/svg" xmlns:xlink="http://www.w3.org/1999/xlink" id="body_1" width="53" height="51">

<g transform="matrix(0.030724637 0 0 0.030704398 0 0)">
	<g>
        <path d="M819.5 -0.5C 851.5 -0.5 883.5 -0.5 915.5 -0.5C 925.346 0.330732 935.346 1.16406 945.5 2C 986.198 8.48063 1026.86 15.1473 1067.5 22C 1101.17 29.7794 1134.17 39.7794 1166.5 52C 1202.74 67.7852 1238.74 84.1185 1274.5 101C 1346.27 140.086 1411.27 188.419 1469.5 246C 1478.3 255.804 1487.47 265.304 1497 274.5C 1521 304.5 1545 334.5 1569 364.5C 1612.33 428.159 1647 496.492 1673 569.5C 1682.84 605.877 1692.84 642.211 1703 678.5C 1735.83 843.906 1721.83 1005.24 1661 1162.5C 1614.5 1279.05 1546 1380.55 1455.5 1467C 1430.87 1487.29 1406.54 1507.96 1382.5 1529C 1379.83 1531.34 1376.83 1533.17 1373.5 1534.5C 1372.43 1532.81 1372.6 1531.15 1374 1529.5C 1391.33 1504.83 1408.67 1480.17 1426 1455.5C 1446.08 1424.33 1466.42 1393.33 1487 1362.5C 1523.02 1302.79 1554.02 1240.46 1580 1175.5C 1598.23 1126.91 1612.9 1077.25 1624 1026.5C 1635.55 975.418 1639.89 923.751 1637 871.5C 1635.61 860.124 1633.95 848.791 1632 837.5C 1623.76 887.953 1614.76 938.286 1605 988.5C 1594.56 1037.5 1579.89 1085.16 1561 1131.5C 1545.45 1164.28 1527.12 1195.28 1506 1224.5C 1503.67 1226.83 1501.33 1229.17 1499 1231.5C 1498.33 1228.83 1498.33 1226.17 1499 1223.5C 1507.86 1182.4 1517.19 1141.4 1527 1100.5C 1552.38 990.031 1555.05 879.031 1535 767.5C 1524.83 722.315 1511.83 677.982 1496 634.5C 1491.11 623.061 1485.45 612.061 1479 601.5C 1478.83 602 1478.67 602.5 1478.5 603C 1484.86 659.781 1490.53 716.614 1495.5 773.5C 1494.76 811.139 1493.76 848.806 1492.5 886.5C 1488.79 882.567 1486.29 877.9 1485 872.5C 1454.1 738.406 1402.1 613.406 1329 497.5C 1272.99 411.798 1205.15 336.298 1125.5 271C 1076.19 233.323 1023.52 200.656 967.5 173C 900.923 142.031 831.256 121.364 758.5 111C 678.393 100.787 599.726 107.453 522.5 131C 501.135 137.344 480.135 144.677 459.5 153C 439.167 162 418.833 171 398.5 180C 355.5 202.833 312.5 225.667 269.5 248.5C 269.167 248.167 268.833 247.833 268.5 247.5C 400.377 116.892 558.71 37.0587 743.5 8C 768.931 4.69196 794.265 1.85863 819.5 -0.5z" stroke="none" fill="#F1673D" fill-rule="nonzero" fill-opacity="0.99215686" />
	</g>
	<g>
        <path d="M275.5 315.5C 276.873 315.343 278.207 315.51 279.5 316C 319.108 370.816 328.941 430.649 309 495.5C 289.678 548.492 252.845 582.326 198.5 597C 192.567 598.546 186.567 599.213 180.5 599C 161.411 566.808 153.245 531.975 156 494.5C 160.163 430.67 186.663 378.503 235.5 338C 248.118 329.192 261.452 321.692 275.5 315.5z" stroke="none" fill="#4B72E3" fill-rule="nonzero" fill-opacity="0.99215686" />
	</g>
	<g>
        <path d="M-0.5 897.5C -0.5 887.167 -0.5 876.833 -0.5 866.5C 2.32473 812.192 18.4914 762.192 48 716.5C 52.4562 710.375 57.2895 704.542 62.5 699C 63.5 698.333 64.5 698.333 65.5 699C 105.084 723.375 144.584 747.875 184 772.5C 222.386 757.725 258.553 738.892 292.5 716C 334.143 686.354 364.643 647.854 384 600.5C 394.333 573.5 404.667 546.5 415 519.5C 445.168 451.245 497.502 414.579 572 409.5C 639.607 413.187 691.274 443.52 727 500.5C 754.191 551.478 755.525 603.145 731 655.5C 685.581 746.449 612.747 780.949 512.5 759C 482.249 753.483 451.916 748.483 421.5 744C 380.821 737.334 342.155 743.334 305.5 762C 271.212 776.64 241.712 797.807 217 825.5C 202.444 843.945 192.111 864.612 186 887.5C 179.333 918.836 172.666 950.169 166 981.5C 152.554 1026.61 125.387 1060.78 84.5 1084C 83.5 1084.67 82.5 1084.67 81.5 1084C 37.7638 1041.7 11.5971 990.198 3 929.5C 1.63324 918.702 0.466569 908.035 -0.5 897.5z" stroke="none" fill="#F1683E" fill-rule="nonzero" fill-opacity="0.99607843" />
	</g>
	<g>
        <path d="M968.5 1066.5C 1014.31 1066.09 1053.97 1081.25 1087.5 1112C 1136.07 1158.65 1156.23 1215.49 1148 1282.5C 1139.97 1317.85 1121.47 1346.35 1092.5 1368C 1056.12 1393.46 1015.62 1405.62 971 1404.5C 936.007 1402.68 901.007 1401.01 866 1399.5C 823.253 1398.92 782.419 1407.42 743.5 1425C 719.461 1434.51 697.128 1446.85 676.5 1462C 656.068 1477.53 645.402 1498.19 644.5 1524C 648.204 1552.09 651.204 1580.26 653.5 1608.5C 653.16 1620.25 651.993 1631.92 650 1643.5C 649.228 1644.85 648.061 1645.68 646.5 1646C 603.373 1652.02 561.039 1648.36 519.5 1635C 459.36 1616.44 405.693 1586.78 358.5 1546C 347.558 1536.06 337.725 1525.23 329 1513.5C 300.275 1469.12 312.108 1443.28 364.5 1436C 385.161 1434.07 405.827 1434.07 426.5 1436C 468.982 1442.28 511.649 1446.12 554.5 1447.5C 591.031 1447.64 626.698 1442.14 661.5 1431C 706.309 1413.86 738.476 1383.36 758 1339.5C 772.132 1303.64 783.799 1266.98 793 1229.5C 801.479 1197.03 815.146 1167.03 834 1139.5C 868.878 1096.98 913.711 1072.64 968.5 1066.5z" stroke="none" fill="#4B72E3" fill-rule="nonzero" fill-opacity="0.99607843" />
	</g>
	<g>
        <path d="M959.5 1660.5C 956.167 1660.5 952.833 1660.5 949.5 1660.5C 915.602 1659.55 882.935 1652.38 851.5 1639C 836.039 1631.87 822.539 1622.04 811 1609.5C 799.973 1595 797.973 1579.34 805 1562.5C 813.288 1544.21 826.788 1531.38 845.5 1524C 873.618 1513.69 902.618 1510.03 932.5 1513C 970.531 1515.54 1004.86 1527.87 1035.5 1550C 1056.67 1567.99 1074.34 1588.83 1088.5 1612.5C 1071.94 1628.62 1052.61 1640.46 1030.5 1648C 1007.26 1655.43 983.594 1659.59 959.5 1660.5z" stroke="none" fill="#F1683E" fill-rule="nonzero" fill-opacity="0.99607843" />
	</g>
</g>
</svg>